{
  "preset": "laravel",
  "rules": {
    "concat_space": {
      "spacing": "one"
    },
    "declare_strict_types": true,
    "final_class": false,
    "ordered_class_elements": {
      "order": [
        "use_trait",
        "case",
        "constant",
        "constant_public",
        "constant_protected",
        "constant_private",
        "property_public",
        "property_protected",
        "property_private",
        "construct",
        "destruct",
        "magic",
        "phpunit",
        "method_abstract",
        "method_public_static",
        "method_public",
        "method_protected_static",
        "method_protected",
        "method_private_static",
        "method_private"
      ],
      "sort_algorithm": "alpha"
    },
    "ordered_imports": {
      "sort_algorithm": "alpha"
    },
    "phpdoc_add_missing_param_annotation": {
      "only_untyped": true
    },
    "phpdoc_param_order": true,
    "phpdoc_annotation_without_dot": true,
    "phpdoc_line_span": {
      "const": "multi",
      "method": "multi",
      "property": "multi"
    },
    "phpdoc_trim_consecutive_blank_line_separation": true,
    "single_trait_insert_per_statement": false,
    "void_return": true
  },
  "exclude": ["build", "node_modules", "stubs"],
  "notPath": ["tests/Pest.php", "_ide_helper.php", "_ide_helper_models.php"],
  "notName": ["*.blade.php"]
}
