{
    "name": "Users",
    "alias": "users",
    "description": "",
    "keywords": [],
    "priority": 0,
    "providers": [
        "Modules\\Users\\Providers\\UsersServiceProvider",
        "Modules\\Users\\Providers\\Filament\\AdminPanelProvider"
    ],
    "files": []
}